<?xml version="1.0" encoding="utf-8"?>
<!-- Generator: Adobe Illustrator 19.1.0, SVG Export Plug-In . SVG Version: 6.00 Build 0)  -->
<svg version="1.1" id="Layer_1" xmlns="http://www.w3.org/2000/svg" xmlns:xlink="http://www.w3.org/1999/xlink" x="0px" y="0px"
	 width="50px" height="20px" viewBox="0 0 50 20" style="enable-background:new 0 0 50 20;" xml:space="preserve">
<style type="text/css">
	.st0{fill:#E8E8E8;stroke:#C9C9C9;stroke-miterlimit:10;}
	.st1{fill:#EDEDED;stroke:#606060;stroke-miterlimit:10;}
</style>
<g>
	<path class="st0" d="M10.1,2h29.7c4.4,0,8,3.6,8,8v0c0,4.4-3.6,8-8,8H10.1c-4.4,0-8-3.6-8-8v0C2.1,5.6,5.7,2,10.1,2z"/>
	<circle class="st1" cx="10" cy="10" r="5.1"/>
</g>
</svg>
